{
  "content": [
    [
      12,
      "Lorem Ipsum 12",
      "Neque porro quisquam est qui dolorem ipsum quia dolor sit amet, consectetur, adipisci velit...",
      "2018-10-27T11:18:52.389"
    ],
    [
      10,
      "Lorem Ipsum 10",
      "Neque porro quisquam est qui dolorem ipsum quia dolor sit amet, consectetur, adipisci velit...",
      "2018-10-27T11:18:52.389"
    ],
    [
      9,
      "Lorem Ipsum 9",
      "Neque porro quisquam est qui dolorem ipsum quia dolor sit amet, consectetur, adipisci velit...",
      "2018-10-27T11:18:52.389"
    ],
    [
      11,
      "Lorem Ipsum 11",
      "Neque porro quisquam est qui dolorem ipsum quia dolor sit amet, consectetur, adipisci velit...",
      "2018-10-27T11:18:52.389"
    ],
    [
      13,
      "Lorem Ipsum 13",
      "Neque porro quisquam est qui dolorem ipsum quia dolor sit amet, consectetur, adipisci velit...",
      "2018-10-27T11:18:52.389"
    ],
    [
      14,
      "Lorem Ipsum 14",
      "Neque porro quisquam est qui dolorem ipsum quia dolor sit amet, consectetur, adipisci velit...",
      "2018-10-27T11:18:52.389"
    ],
    [
      15,
      "Lorem Ipsum 15",
      "Neque porro quisquam est qui dolorem ipsum quia dolor sit amet, consectetur, adipisci velit...",
      "2018-10-27T11:18:52.389"
    ],
    [
      7,
      "Lorem Ipsum 7",
      "Neque porro quisquam est qui dolorem ipsum quia dolor sit amet, consectetur, adipisci velit...",
      "2018-10-27T11:18:52.389"
    ],
    [
      3,
      "Lorem Ipsum 3",
      "Neque porro quisquam est qui dolorem ipsum quia dolor sit amet, consectetur, adipisci velit...",
      "2018-10-27T11:18:52.389"
    ],
    [
      2,
      "Lorem Ipsum 2",
      "Neque porro quisquam est qui dolorem ipsum quia dolor sit amet, consectetur, adipisci velit...",
      "2018-10-27T11:18:52.389"
    ]
  ],
  "pageable": {
    "sort": {
      "sorted": true,
      "unsorted": false
    },
    "offset": 0,
    "pageSize": 10,
    "pageNumber": 0,
    "paged": true,
    "unpaged": false
  },
  "totalPages": 2,
  "last": false,
  "totalElements": 15,
  "size": 10,
  "number": 0,
  "sort": {
    "sorted": true,
    "unsorted": false
  },
  "first": true,
  "numberOfElements": 10
}
